var0,var1,var2,var3,var4,var5,var6,var7,var8,var9
4.709507201480718,-3.2012801919334444,4.355655802131976,5.5688817023230754,5.95506282887094,-1.5615769628126972,1.3692114628509902,3.462368296607149,1.7795657741814817,2.789963355253816
4.711997492097857,-3.1785614759684124,4.456677399537988,5.467638855387041,5.954761533850184,-1.5119463821198968,1.369221118575547,3.462368296607149,1.7795657741814817,2.789963355253816
4.713914923586214,-3.164471140691791,4.8089696196391305,5.116212190838151,5.954997832629143,-1.6878411598526464,1.3691562825128354,3.462368296607149,1.7795657741814817,2.789963355253816
4.718681003235978,-3.1103118139522365,3.9745148954937863,5.9469862779382785,5.955062197032774,-1.5913870216847257,1.3697586753046054,3.462368296607149,1.7795657741814817,2.789963355253816
4.7187177563838585,-3.1748239493426498,4.052803152405254,5.870534578090348,5.954953554158899,-1.6786424322799247,1.3692131157134306,3.462368296607149,1.7795657741814817,2.789963355253816
4.710545330188746,-3.1892372529288027,4.340102187459764,5.584155471456864,5.954651642341189,-1.5532358448224337,1.3692213062073055,3.462368296607149,1.7795657741814817,2.789963355253816
4.715903097340065,-3.1870110193683776,4.419411537183632,5.5049584117717565,5.955493965625668,-1.5972779772098529,1.3692635745835282,3.462368296607149,1.7795657741814817,2.789963355253816
4.718764232115482,-3.1526215293399726,4.970444976611488,4.956135674999345,5.956135066751984,-1.6263802283207933,1.3690746113883705,3.462368296607149,1.7795657741814817,2.789963355253816
4.709814960351459,-3.2067669967231645,4.322759438227745,5.601842963959028,5.954701764648532,-1.555086742826975,1.3692268963218561,3.462368296607149,1.7795657741814817,2.789963355253816
4.718172036923479,-3.189398194226119,4.287041708698332,5.637121063368911,5.9552946863524365,-1.5269689714524115,1.3691849472855526,3.462368296607149,1.7795657741814817,2.789963355253816
4.7102113776675685,-3.1972781315817334,4.373798672608906,5.550686706147572,5.954816953782265,-1.5734455087997223,1.3692254514473012,3.462368296607149,1.7795657741814817,2.789963355253816
4.709809074229054,-3.203581043538955,4.3558021837496,5.56878928337822,5.954629383375257,-1.5571581711748934,1.3692203082005225,3.462368296607149,1.7795657741814817,2.789963355253816
4.714226078180491,-3.468302399592519,3.529370085483051,6.252212908607437,6.024835768919286,-1.5574700145806872,1.4125690361765502,3.462368296607149,1.7795657741814817,2.789963355253816
4.736930725361731,-3.1746597258254683,4.122611346550419,5.801027580578211,5.955387002119044,-1.4906574599714302,1.3691463944442834,3.462368296607149,1.7795657741814817,2.789963355253816
4.709981422570553,-3.200108840106886,4.343558646672296,5.580930561131561,5.95463233508928,-1.5555533095029181,1.3692221874564479,3.462368296607149,1.7795657741814817,2.789963355253816
4.718480472583271,-3.172532135754352,4.514795284270384,5.409550419641167,5.95497702371207,-1.4896071311075854,1.3692430131006692,3.462368296607149,1.7795657741814817,2.789963355253816
4.735880020788492,-3.1505336384246325,4.746727461483401,5.1773854913526876,5.954986142661932,-1.5218048823643031,1.3693456937631858,3.462368296607149,1.7795657741814817,2.789963355253816
4.711520609700863,-3.2154393490165547,3.831276315793257,6.091651628265338,5.955371215588161,-1.4620105073469216,1.3693431893839378,3.462368296607149,1.7795657741814817,2.789963355253816
4.716086125745005,-3.1744299332481307,4.13244440732618,5.791103862185868,5.954949198944933,-1.6570700356925914,1.369206389543184,3.462368296607149,1.7795657741814817,2.789963355253816
4.711038761030583,-3.2010770067636467,4.356590703220387,5.567943807372108,5.955001569467742,-1.560734813386523,1.369219692714063,3.462368296607149,1.7795657741814817,2.789963355253816
4.713442133240604,-3.1673033593798032,4.687090950680492,5.23764557170574,5.954822468668472,-1.4548250327000927,1.3691873440073157,3.462368296607149,1.7795657741814817,2.789963355253816
4.72011704580054,-3.180407488313207,5.046042438323112,4.886047671638862,5.958896566524288,-1.7092911177528785,1.368208351126479,3.462368296607149,1.7795657741814817,2.789963355253816
